[gd_resource type="DynamicFont" load_steps=2 format=2]

[ext_resource path="res://Assets/Fonts/Raw/digital-readout/TrueType/SFDigitalReadout-Heavy.ttf" type="DynamicFontData" id=1]

[resource]
size = 60
font_data = ExtResource( 1 )
